Generating '/tmp/nsys-report-5701.qdstrm'
[1/8] [========================100%] report4.nsys-rep
[2/8] [========================100%] report4.sqlite
[3/8] Executing 'nvtx_sum' stats report
SKIPPED: /home/test/tools/backup6/GPU-rendering-programs/13-LiteTracer-sample1/report4.sqlite does not contain NV Tools Extension (NVTX) data.
[4/8] Executing 'osrt_sum' stats report

 Time (%)   Total Time (ns)   Num Calls    Avg (ns)    Med (ns)   Min (ns)     Max (ns)      StdDev (ns)            Name         
 --------  -----------------  ---------  ------------  ---------  --------  --------------  -------------  ----------------------
     95.0  1,297,365,440,500     85,783  15,123,805.9  151,775.0       575  41,187,883,058  562,476,263.3  pthread_cond_wait     
      4.0     55,185,770,369     19,955   2,765,510.9      338.0       227     100,286,387   14,357,615.2  poll                  
      0.7      8,914,574,857    156,032      57,133.0   45,720.5       105       1,198,303       57,697.6  pthread_barrier_wait  
      0.3      4,084,442,461    410,760       9,943.6    3,481.0        15       3,682,589       34,858.7  pthread_mutex_lock    
      0.0        528,036,757     18,240      28,949.4   30,029.0     3,392         206,433       11,139.5  writev                
      0.0        109,648,104    187,868         583.6       65.0        10          50,995          802.2  pthread_cond_signal   
      0.0         48,015,274        792      60,625.3   12,953.0       199       9,451,503      430,421.2  ioctl                 
      0.0          5,289,684      7,433         711.6      261.0       160          28,763        1,029.7  recvmsg               
      0.0          3,851,390     96,264          40.0       35.0        10          18,976           72.4  pthread_cond_broadcast
      0.0          1,740,567         32      54,392.7    7,323.5       149         582,474      125,091.5  pthread_join          
      0.0          1,336,109         70      19,087.3   17,856.0     1,804         461,951       54,211.6  mmap64                
      0.0            984,646         36      27,351.3   16,145.0     9,775         236,237       39,431.2  pthread_create        
      0.0            681,344         10      68,134.4   58,474.5    31,683         182,110       44,099.0  sem_timedwait         
      0.0            618,099         32      19,315.6    1,866.5       602         546,574       96,227.3  fopen                 
      0.0            511,415         92       5,558.9    5,097.0       565          25,531        2,751.3  open64                
      0.0            178,218         16      11,138.6    2,257.0     1,122         112,023       27,944.0  prctl                 
      0.0             79,281         22       3,603.7    2,359.0       716          20,564        4,171.5  mmap                  
      0.0             62,870         31       2,028.1      778.0       152           8,770        2,503.7  recv                  
      0.0             56,311         26       2,165.8       27.0        23          28,183        5,780.8  fread                 
      0.0             39,518          2      19,759.0   19,759.0     5,176          34,342       20,623.5  connect               
      0.0             27,857         12       2,321.4    2,185.5       363           5,836        1,401.6  write                 
      0.0             25,458         27         942.9       29.0        24          24,661        4,740.1  fgets                 
      0.0             22,690          6       3,781.7    4,315.0     1,830           5,034        1,310.3  open                  
      0.0             22,086         97         227.7      194.0        82           1,834          183.5  fcntl                 
      0.0             21,588         11       1,962.5    1,507.0       683           6,134        1,525.0  munmap                
      0.0             20,871         26         802.7      764.5       395           1,809          304.6  fclose                
      0.0             19,322         31         623.3      571.0       164           1,699          379.6  read                  
      0.0             12,648          9       1,405.3    1,199.0       165           4,091        1,350.0  mprotect              
      0.0             10,334          3       3,444.7    2,799.0     2,443           5,092        1,437.7  socket                
      0.0              6,695          1       6,695.0    6,695.0     6,695           6,695            0.0  shutdown              
      0.0              6,355          1       6,355.0    6,355.0     6,355           6,355            0.0  shmget                
      0.0              4,200          1       4,200.0    4,200.0     4,200           4,200            0.0  shmat                 
      0.0              3,415          1       3,415.0    3,415.0     3,415           3,415            0.0  pipe2                 
      0.0              2,370         10         237.0       41.5        22           1,789          550.1  fgets_unlocked        
      0.0              1,852         64          28.9       16.0        15             123           27.5  pthread_mutex_trylock 
      0.0                709          1         709.0      709.0       709             709            0.0  bind                  
      0.0                446          1         446.0      446.0       446             446            0.0  listen                
      0.0                394          1         394.0      394.0       394             394            0.0  shmctl                
      0.0                276          6          46.0       23.0        21             114           39.3  fflush                

[5/8] Executing 'cuda_api_sum' stats report

 Time (%)  Total Time (ns)  Num Calls    Avg (ns)      Med (ns)    Min (ns)   Max (ns)   StdDev (ns)          Name        
 --------  ---------------  ---------  ------------  ------------  --------  ----------  -----------  --------------------
     99.8   22,103,628,197      1,291  17,121,323.2  17,921,065.0       309  99,752,202  5,162,125.0  cudaMemcpy          
      0.1       19,382,119      1,213      15,978.7      16,346.0    10,112      58,214      2,346.9  cudaLaunchKernel    
      0.1       16,244,166      2,425       6,698.6       6,562.0       980      45,172      5,734.5  cudaEventRecord     
      0.0        6,778,669      1,212       5,593.0       5,524.0     4,350      17,219        659.6  cudaEventSynchronize
      0.0        2,063,818      2,426         850.7       1,047.0       254       5,704        559.2  cudaEventCreate     
      0.0        1,594,540      2,424         657.8         791.0       240       4,819        355.4  cudaEventDestroy    
      0.0        1,235,003         14      88,214.5      90,991.5    69,273     102,948      8,918.4  cudaMalloc          
      0.0          578,867         14      41,347.6      48,691.5       177      67,555     22,450.9  cudaFree            
      0.0           14,054          1      14,054.0      14,054.0    14,054      14,054          0.0  cudaMemset          

[6/8] Executing 'cuda_gpu_kern_sum' stats report

 Time (%)  Total Time (ns)  Instances    Avg (ns)      Med (ns)     Min (ns)    Max (ns)   StdDev (ns)                                     Name                                    
 --------  ---------------  ---------  ------------  ------------  ----------  ----------  -----------  ---------------------------------------------------------------------------
    100.0   20,868,276,138      1,213  17,203,855.0  17,043,076.0  15,765,580  42,291,801  1,735,447.7  render_kernel(int, int, int, Polygon *, float3 *, float3 *, float3, float3)

[7/8] Executing 'cuda_gpu_mem_time_sum' stats report

 Time (%)  Total Time (ns)  Count  Avg (ns)   Med (ns)   Min (ns)  Max (ns)   StdDev (ns)      Operation     
 --------  ---------------  -----  ---------  ---------  --------  ---------  -----------  ------------------
    100.0    1,042,403,250  1,224  851,636.6  856,012.0     1,503  2,409,639     96,936.0  [CUDA memcpy DtoH]
      0.0           84,286     65    1,296.7    1,247.0     1,184      1,728        145.1  [CUDA memcpy HtoD]
      0.0           42,207      1   42,207.0   42,207.0    42,207     42,207          0.0  [CUDA memset]     

[8/8] Executing 'cuda_gpu_mem_size_sum' stats report

 Total (MB)  Count  Avg (MB)  Med (MB)  Min (MB)  Max (MB)  StdDev (MB)      Operation     
 ----------  -----  --------  --------  --------  --------  -----------  ------------------
 11,626.181  1,224     9.499     9.585     0.000     9.585        0.905  [CUDA memcpy DtoH]
      9.585      1     9.585     9.585     9.585     9.585        0.000  [CUDA memset]     
      0.017     65     0.000     0.000     0.000     0.003        0.001  [CUDA memcpy HtoD]

Generated:
    /home/test/tools/backup6/GPU-rendering-programs/13-LiteTracer-sample1/report4.nsys-rep
    /home/test/tools/backup6/GPU-rendering-programs/13-LiteTracer-sample1/report4.sqlite

